Questions about logit
…
Devin: We do a sensitivity analysis to evaluate a classification method. Any classification method has a sensitivity/specificity tradeoff; some give relatively more false negatives and others more false positives. Before we can evaluate our classification, we need to do some classifying. Lets start by classifying each case that our model gave probability less than .5 as a (no probation) and the rest a 1 (probation). We can just round our predicted probabilities.

predicted <- augment(model,  
                     type.predict = "response"
                     ) %>% 
  mutate(classification = round(.fitted)) %>% 
  mutate(type = ifelse(classification == 0 & Probat == 0, "True negative",
                ifelse(classification == 1 & Probat == 1, "True positive",
                ifelse(classification == 1 & Probat == 0, "False positive",
                "False negative")))
         )

predicted %>% select(Probat, .fitted, classification, type)

## # A tibble: 280 x 4
##    Probat .fitted classification type          
##     <dbl>   <dbl>          <dbl> <chr>         
##  1      0 0.793                1 False positive
##  2      1 0.978                1 True positive 
##  3      0 0.253                0 True negative 
##  4      0 0.0389               0 True negative 
##  5      1 0.683                1 True positive 
##  6      0 0.00845              0 True negative 
##  7      1 0.958                1 True positive 
##  8      1 0.997                1 True positive 
##  9      1 0.242                0 False negative
## 10      1 0.970                1 True positive 
## #  with 270 more rows
…
